{
    "properties": {
        "name": {
            "type": "string",
            "title": "Name",
            "minLength": 4
        },
        "imageID": {
            "type": "string",
            "widget": "image",
            "title": "Image",
            "description": "Only upload images you own the right to upload. E.g. self-taken images."
        },
        "duration": {
            "type": "number",
            "title": "Duration",
            "description": "0 duration as in preparing a delicious piece of chocolate by breaking it of from a chocolate bar. 5 duration as in preparing a 5 course meal.",
            "widget": {
              "id":"starthingie",
              "emoji":"⏰"
            },
            "minimum": 0,
            "maximum": 5
        },
        "skill": {
            "type": "number",
            "title": "Skill",
            "description": "0 skill as in preparing a delicious piece of chocolate by breaking it of from a chocolate bar. 5 skill as in preparing a Souflé of Macarons.",            
            "widget": {
              "id":"starthingie",
              "emoji":"💪"
            },
            "minimum": 0,
            "maximum": 5
        },
        "persons": {
            "type": "number",
            "title": "Persons",
            "widget": {
              "id":"starthingie",
              "emoji":"👩‍💻"
            },
            "minimum": 1,
            "maximum": 20,
            "description": "At least one."
        },
        "description": {
            "type": "string",
            "title": "Description",
            "widget": "richtext",
            "minLength": 5
        },
        "ingredients": {
            "type": "array",
            "title": "Ingredients",
            "items": {
                "type":"object",
                "widget":"inlineObject",
                "properties": {
                    "quantity": {
                        "type": "number",
                        "widget": "number",
                        "minimum": 0
                    },
                    "quantitytype": {
                        "type": "string",
                        "widget": {
                          "id": "tagselect",
                          "topic": "Units"
                        }
                    },
                    "name": {
                        "type": "string",
                        "widget": {
                          "id": "tagselect",
                          "topic": "Ingredients"
                        }
                    }
                },
                "required": [
                    "name"
                ]
            }
        }
    },
    "required": ["name", "skill", "duration", "description"]
  }